\relax 
\catcode`"\active
\select@language{italian}
\@writefile{toc}{\select@language{italian}}
\@writefile{lof}{\select@language{italian}}
\@writefile{lot}{\select@language{italian}}
\@writefile{toc}{\contentsline {section}{\numberline {1}Specifiche}{3}}
\@writefile{toc}{\contentsline {section}{\numberline {2}Stuttura del progetto}{4}}
\@writefile{toc}{\contentsline {subsection}{\numberline {2.1}Interfacce: Everything is ... a Node}{4}}
\@writefile{toc}{\contentsline {subsection}{\numberline {2.2}Tipi}{5}}
\@writefile{toc}{\contentsline {subsection}{\numberline {2.3}Valori}{5}}
\@writefile{toc}{\contentsline {subsection}{\numberline {2.4}Implementazione}{6}}
\@writefile{toc}{\contentsline {section}{\numberline {3}Struttura Activation Record}{7}}
\newlabel{SC@1}{{\caption@xref {??}{ on input line 127}}{7}}
\@writefile{lof}{\contentsline {figure}{\numberline {1}{\ignorespaces Activation Record Structure \begingroup \catcode `\spacefactor \@m 11\relax \catcode `\==12\relax \lst@inputlisting {code/CallNode.java}\begingroup \catcode `\spacefactor \@m 11\relax \catcode `\==12\relax \lst@inputlisting {code/FunNode.java}\relax }}{7}}
\@writefile{lol}{\contentsline {lstlisting}{\numberline {3}}{7}}
\@writefile{lol}{\contentsline {lstlisting}{\numberline {4}}{7}}
\@writefile{toc}{\contentsline {section}{\numberline {4}Parte 1: Operatori}{8}}
\@writefile{toc}{\contentsline {subsection}{\numberline {4.1}Struttura}{8}}
\@writefile{toc}{\contentsline {section}{\numberline {5}Parte 2: Programmazione Funzionale}{9}}
\newlabel{SC@2}{{\caption@xref {??}{ on input line 148}}{9}}
\@writefile{lof}{\contentsline {figure}{\numberline {2}{\ignorespaces Functional programming\relax }}{9}}
\@writefile{toc}{\contentsline {subsection}{\numberline {5.1}Covarianza e Controvarianza}{10}}
\@writefile{toc}{\contentsline {subsection}{\numberline {5.2}Funzioni in variabili}{10}}
\@writefile{toc}{\contentsline {section}{\numberline {6}Parte 3: Oggetti}{11}}
\newlabel{SC@3}{{\caption@xref {??}{ on input line 172}}{11}}
\@writefile{lof}{\contentsline {figure}{\numberline {3}{\ignorespaces Ereditariet\IeC {\`a} \begingroup \catcode `\spacefactor \@m 11\relax \catcode `\==12\relax \lst@inputlisting {code/oop1.fool}\relax }}{11}}
\@writefile{lol}{\contentsline {lstlisting}{\numberline {6}}{11}}
\newlabel{SC@4}{{\caption@xref {??}{ on input line 177}}{11}}
\@writefile{lof}{\contentsline {figure}{\numberline {4}{\ignorespaces Oggetti nested \begingroup \catcode `\spacefactor \@m 11\relax \catcode `\==12\relax \lst@inputlisting {code/oop2.fool}\relax }}{11}}
\@writefile{lol}{\contentsline {lstlisting}{\numberline {8}}{11}}
\@writefile{toc}{\contentsline {subsection}{\numberline {6.1}Ereditariet\IeC {\`a} e varianza}{12}}
\@writefile{toc}{\contentsline {subsection}{\numberline {6.2}Oggetti nested}{12}}
\@writefile{toc}{\contentsline {subsection}{\numberline {6.3}Una piccola estensione}{12}}
